calculate integer "-2--2*-2"
calculate integer "-2--2*+2"
calculate integer "+2+-2*+2"
calculate integer "+2+-2*+2+2+-2*+2+2+-2*+2+2+-2*+2+2+-2*+2+2+-2*+2+2+-2*+2+2+-2*+2+2+-2*+2+2+-2*+2+2+-2*+2+2+-2*+2+2+-2*+2+2+-2*+2+2+-2*+2+2+-2*+2+2+-2*+2+2+-2*+2+2+-2*+2+2+-2*+2+2+-2*+2+2+-2*+2+2+-2*+2+2+-2*+2+2+-2*+2+2+-2*+2+2+-2*+2+2+-2*+2+2+-2*+2+2+-2*+2+2+-2*+2+2+-2*+2+2+-2*+2+2+-2*+2+2+-2*+2+2+-2*+2+2+-2*+2+2+-2*+2+2+-2*+2+2+-2*+2+2+-2*+2+2+-2*+2+2+-2*+2+2+-2*+2+2+-2*+2+2+-2*+2+2+-2*+2+2+-2*+2+2+-2*+2+2+-2*+2+2+-2*+2+2+-2*+2+2+-2*+2+2+-2*+2+2+-2*+2+2+-2*+2+2+-2*+2+2+-2*+2+2+-2*+2+2+-2*+2+2+-2*+2+2+-2*+2+2+-2*+2+2+-2*+2+2+-2*+2+2+-2*+2+2+-2*+2+2+-2*+2+2+-2*+2+2+-2*+2+2+-2*+2+2+-2*+2+2+-2*+2+2+-2*+2+2+-2*+2+2+-2*+2+2+-2*+2+2+-2*+2+2+-2*+2+2+-2*+2+2+-2*+2+2+-2*+2+2+-2*+2+2+-2*+2+2+-2*+2+2+-2*+2+2+-2*+2+2+-2*+2+2+-2*+2-2*+2+2+-2*+2-2*+2+2+-2*+2-2*+2+2+-2*+2-2*+2+2+-2*+2-2*+2+2+-2*+2-2*+2+2+-2*+2-2*+2+2+-2*+2-2*+2+2+-2*+2-2*+2+2+-2*+2-2*+2+2+-2*+2-2*+2+2+-2*+2-2*+2+2+-2*+2-2*+2+2+-2*+2-2*+2+2+-2*+2-2*+2+2+-2*+2-2*+2+2+-2*+2-2*+2+2+-2*+2-2*+2+2+-2*+2-2*+2+2+-2*+2-2*+2+2+-2*+2-2*+2+2+-2*+2-2*+2+2+-2*+2-2*+2+2+-2*+2-2*+2+2+-2*+2-2*+2+2+-2*+2-2*+2+2+-2*+2-2*+2+2+-2*+2-2*+2+2+-2*+2-2*+2+2+-2*+2-2*+2+2+-2*+2-2*+2+2+-2*+2-2*+2+2+-2*+2-2*+2+2+-2*+2-2*+2+2+-2*+2-2*+2+2+-2*+2-2*+2+2+-2*+2-2*+2+2+-2*+2-2*+2+2+-2*+2-2*+2+2+-2*+2-2*+2+2+-2*+2-2*+2+2+-2*+2-2*+2+2+-2*+2-2*+2+2+-2*+2-2*+2+2+-2*+2-2*+2+2+-2*+2-2*+2+2+-2*+2-2*+2+2+-2*+2-2*+2+2+-2*+2-2*+2+2+-2*+2-2*+2+2+-2*+2-2*+2+2+-2*+2-2*+2+2+-2*+2-2*+2+2+-2*+2-2*+2+2+-2*+2-2*+2+2+-2*+2-2*+2+2+-2*+2-2*+2+2+-2*+2-2*+2+2+-2*+2-2*+2+2+-2*+2-2*+2+2+-2*+2-2*+2+2+-2*+2-2*+2+2+-2*+2-2*+2+2+-2*+2-2*+2+2+-2*+2-2*+2+2+-2*+2-2*+2+2+-2*+2-2*+2+2+-2*+2-2*+2+2+-2*+2-2*+2+2+-2*+2-2*+2+2+-2*+2-2*+2+2+-2*+2-2*+2+2+-2*+2-2*+2+2+-2*+2-2*+2+2+-2*+2-2*+2+2+-2*+2-2*+2+2+-2*+2-2*+2+2+-2*+2-2*+2+2+-2*+2-2*+2+2+-2*+2-2*+2+2+-2*+2-2*+2+2+-2*+2-2*+2+2+-2*+2-2*+2+2+-2*+2-2*+2+2+-2*+2-2*+2+2+-2*+2-2*+2+2+-2*+2-2*+2+2+-2*+2-2*+2+2+-2*+2-2*+2+2+-2*+2-2*+2+2+-2*+2-2*+2+2+-2*+2-2*+2+2+-2*+2-2*+2+2+-2*+2-2*+2+2+-2*+2-2*+2+2+-2*+2-2*+2+2+-2*+2-2*+2+2+-2*+2-2*+2+2+-2*+2-2*+2+2+-2*+2-2*+2+2+-2*+2-2*+2+2+-2*+2-2*+2+2+-2*+2-2*+2+2+-2*+2-2*+2+2+-2*+2-2*+2+2+-2*+2-2*+2+2+-2*+2-2*+2+2+-2*+2-2*+2+2+-2*+2-2*+2+2+-2*+2-2*+2+2+-2*+2-2*+2+2+-2*+2-2*+2+2+-2*+2-2*+2+2+-2*+2-2*+2+2+-2*+2-2*+2+2+-2*+2-2*+2+2+-2*+2-2*+2+2+-2*+2-2*+2+2+-2*+2-2*+2+2+-2*+2-2*+2+2+-2*+2-2*+2+2+-2*+2-2*+2+2+-2*+2-2*+2+2+-2*+2-2*+2+2+-2*+2-2*+2+2+-2*+2-2*+2+2+-2*+2-2*+2+2+-2*+2-2*+2+2+-2*+2-2*+2+2+-2*+2-2*+2+2+-2*+2-2*+2+2+-2*+2-2*+2+2+-2*+2-2*+2+2+-2*+2-2*+2+2+-2*+2-2*+2+2+-2*+2-2*+2+2+-2*+2-2*+2+2+-2*+2-2*+2+2+-2*+2-2*+2+2+-2*+2-2*+2+2+-2*+2-2*+2+2+-2*+2-2*+2+2+-2*+2-2*+2+2+-2*+2-2*+2+2+-2*+2-2*+2+2+-2*+2-2*+2+2+-2*+2-2*+2+2+-2*+2-2*+2+2+-2*+2-2*+2+2+-2*+2-2*+2+2+-2*+2-2*+2+2+-2*+2-2*+2+2+-2*+2-2*+2+2+-2*+2-2*+2+2+-2*+2-2*+2+2+-2*+2-2*+2+2+-2*+2-2*+2+2+-2*+2-2*+2+2+-2*+2-2*+2+2+-2*+2-2*+2+2+-2*+2-2*+2+2+-2*+2-2*+2+2+-2*+2-2*+2+2+-2*+2-2*+2+2+-2*+2-2*+2+2+-2*+2-2*+2+2+-2*+2-2*+2+2+-2*+2-2*+2+2+-2*+2-2*+2+2+-2*+2-2*+2+2+-2*+2-2*+2+2+-2*+2-2*+2+2+-2*+2-2*+2+2+-2*+2-2*+2+2+-2*+2-2*+2+2+-2*+2-2*+2+2+-2*+2-2*+2+2+-2*+2-2*+2+2+-2*+2-2*+2+2+-2*+2-2*+2+2+-2*+2-2*+2+2+-2*+2-2*+2+2+-2*+2-2*+2+2+-2*+2-2*+2+2+-2*+2-2*+2+2+-2*+2-2*+2+2+-2*+2-2*+2+2+-2*+2-2*+2+2+-2*+2-2*+2+2+-2*+2-2*+2+2+-2*+2-2*+2+2+-2*+2-2*+2+2+-2*+2-2*+2+2+-2*+2-2*+2+2+-2*+2-2*+2+2+-2*+2-2*+2+2+-2*+2-2*+2+2+-2*+2-2*+2+2+-2*+2-2*+2+2+-2*+2-2*+2+2+-2*+2-2*+2+2+-2*+2-2*+2+2+-2*+2-2*+2+2+-2*+2-2*+2+2+-2*+2-2*+2+2+-2*+2-2*+2+2+-2*+2-2*+2+2+-2*+2-2*+2+2+-2*+2-2*+2+2+-2*+2-2*+2+2+-2*+2-2*+2+2+-2*+2-2*+2+2+-2*+2-2*+2+2+-2*+2-2*+2+2+-2*+2-2*+2+2+-2*+2-2*+2+2+-2*+2-2*+2+2+-2*+2-2*+2+2+-2*+2-2*+2+2+-2*+2-2*+2+2+-2*+2-2*+2+2+-2*+2-2*+2+2+-2*+2-2*+2+2+-2*+2-2*+2+2+-2*+2-2*+2+2+-2*+2-2*+2+2+-2*+2-2*+2+2+-2*+2-2*+2+2+-2*+2-2*+2+2+-2*+2-2*+2+2+-2*+2-2*+2+2+-2*+2-2*+2+2+-2*+2-2*+2+2+-2*+2-2*+2+2+-2*+2-2*+2+2+-2*+2-2*+2+2+-2*+2-2*+2+2+-2*+2-2*+2+2+-2*+2-2*+2+2+-2*+2-2*+2+2+-2*+2-2*+2+2+-2*+2-2*+2+2+-2*+2-2*+2+2+-2*+2-2*+2+2+-2*+2-2*+2+2+-2*+2-2*+2+2+-2*+2-2*+2+2+-2*+2-2*+2+2+-2*+2-2*+2+2+-2*+2-2*+2+2+-2*+2-2*+2+2+-2*+2-2*+2+2+-2*+2-2*+2+2+-2*+2-2*+2+2+-2*+2-2*+2+2+-2*+2-2*+2+2+-2*+2-2*+2+2+-2*+2-2*+2+2+-2*+2-2*+2+2+-2*+2-2*+2+2+-2*+2-2*+2+2+-2*+2-2*+2+2+-2*+2-2*+2+2+-2*+2-2*+2+2+-2*+2-2*+2+2+-2*+2-2*+2+2+-2*+2-2*+2+2+-2*+2-2*+2+2+-2*+2-2*+2+2+-2*+2-2*+2+2+-2*+2-2*+2+2+-2*+2-2*+2+2+-2*+2-2*+2+2+-2*+2-2*+2+2+-2*+2-2*+2+2+-2*+2-2*+2+2+-2*+2-2*+2+2+-2*+2-2*+2+2+-2*+2-2*+2+2+-2*+2-2*+2+2+-2*+2-2*+2+2+-2*+2-2*+2+2+-2*+2-2*+2+2+-2*+2-2*+2+2+-2*+2-2*+2+2+-2*+2-2*+2+2+-2*+2-2*+2+2+-2*+2-2*+2+2+-2*+2-2*+2+2+-2*+2-2*+2+2+-2*+2-2*+2+2+-2*+2-2*+2+2+-2*+2-2*+2+2+-2*+2-2*+2+2+-2*+2-2*+2+2+-2*+2-2*+2+2+-2*+2-2*+2+2+-2*+2-2*+2+2+-2*+2-2*+2+2+-2*+2-2*+2+2+-2*+2-2*+2+2+-2*+2-2*+2+2+-2*+2-2*+2+2+-2*+2-2*+2+2+-2*+2-2*+2+2+-2*+2-2*+2+2+-2*+2-2*+2+2+-2*+2-2*+2+2+-2*+2-2*+2+2+-2*+2-2*+2+2+-2*+2-2*+2+2+-2*+2-2*+2+2+-2*+2-2*+2+2+-2*+2-2*+2+2+-2*+2-2*+2+2+-2*+2-2*+2+2+-2*+2-2*+2+2+-2*+2-2*+2+2+-2*+2-2*+2+2+-2*+2-2*+2+2+-2*+2-2*+2+2+-2*+2-2*+2+2+-2*+2-2*+2+2+-2*+2-2*+2+2+-2*+2-2*+2+2+-2*+2-2*+2+2+-2*+2-2*+2+2+-2*+2-2*+2+2+-2*+2-2*+2+2+-2*+2-2*+2+2+-2*+2-2*+2+2+-2*+2-2*+2+2+-2*+2-2*+2+2+-2*+2-2*+2+2+-2*+2-2*+2+2+-2*+2-2*+2+2+-2*+2-2*+2+2+-2*+2-2*+2+2+-2*+2-2*+2+2+-2*+2-2*+2+2+-2*+2-2*+2+2+-2*+2-2*+2+2+-2*+2-2*+2+2+-2*+2-2*+2+2+-2*+2-2*+2+2+-2*+2-2*+2+2+-2*+2-2*+2+2+-2*+2-2*+2+2+-2*+2-2*+2+2+-2*+2-2*+2+2+-2*+2-2*+2+2+-2*+2-2*+2+2+-2*+2-2*+2+2+-2*+2-2*+2+2+-2*+2-2*+2+2+-2*+2-2*+2+2+-2*+2-2*+2+2+-2*+2-2*+2+2+-2*+2-2*+2+2+-2*+2-2*+2+2+-2*+2-2*+2+2+-2*+2-2*+2+2+-2*+2-2*+2+2+-2*+2-2*+2+2+-2*+2-2*+2+2+-2*+2-2*+2+2+-2*+2-2*+2+2+-2*+2-2*+2+2+-2*+2-2*+2+2+-2*+2-2*+2+2+-2*+2-2*+2+2+-2*+2-2*+2+2+-2*+2-2*+2+2+-2*+2-2*+2+2+-2*+2-2*+2+2+-2*+2-2*+2+2+-2*+2-2*+2+2+-2*+2-2*+2+2+-2*+2-2*+2+2+-2*+2-2*+2+2+-2*+2-2*+2+2+-2*+2-2*+2+2+-2*+2-2*+2+2+-2*+2-2*+2+2+-2*+2-2*+2+2+-2*+2-2*+2+2+-2*+2-2*+2+2+-2*+2-2*+2+2+-2*+2-2*+2+2+-2*+2-2*+2+2+-2*+2-2*+2+2+-2*+2-2*+2+2+-2*+2-2*+2+2+-2*+2-2*+2+2+-2*+2-2*+2+2+-2*+2-2*+2+2+-2*+2-2*+2+2+-2*+2-2*+2+2+-2*+2-2*+2+2+-2*+2-2*+2+2+-2*+2-2*+2+2+-2*+2-2*+2+2+-2*+2-2*+2+2+-2*+2-2*+2+2+-2*+2-2*+2+2+-2*+2-2*+2+2+-2*+2-2*+2+2+-2*+2-2*+2+2+-2*+2-2*+2+2+-2*+2-2*+2+2+-2*+2-2*+2+2+-2*+2-2*+2+2+-2*+2-2*+2+2+-2*+2-2*+2+2+-2*+2-2*+2+2+-2*+2-2*+2+2+-2*+2-2*+2+2+-2*+2-2*+2+2+-2*+2-2*+2+2+-2*+2-2*+2+2+-2*+2-2*+2+2+-2*+2-2*+2+2+-2*+2-2*+2+2+-2*+2-2*+2+2+-2*+2-2*+2+2+-2*+2-2*+2+2+-2*+2-2*+2+2+-2*+2-2*+2+2+-2*+2-2*+2+2+-2*+2-2*+2+2+-2*+2-2*+2+2+-2*+2-2*+2+2+-2*+2-2*+2+2+-2*+2-2*+2+2+-2*+2-2*+2+2+-2*+2-2*+2+2+-2*+2-2*+2+2+-2*+2-2*+2+2+-2*+2-2*+2+2+-2*+2-2*+2+2+-2*+2-2*+2+2+-2*+2-2*+2+2+-2*+2-2*+2+2+-2*+2-2*+2+2+-2*+2-2*+2+2+-2*+2-2*+2+2+-2*+2-2*+2+2+-2*+2-2*+2+2+-2*+2-2*+2+2+-2*+2-2*+2+2+-2*+2-2*+2+2+-2*+2-2*+2+2+-2*+2-2*+2+2+-2*+2-2*+2+2+-2*+2-2*+2+2+-2*+2-2*+2+2+-2*+2-2*+2+2+-2*+2-2*+2+2+-2*+2-2*+2+2+-2*+2-2*+2+2+-2*+2-2*+2+2+-2*+2-2*+2+2+-2*+2-2*+2+2+-2*+2-2*+2+2+-2*+2-2*+2+2+-2*+2-2*+2+2+-2*+2-2*+2+2+-2*+2-2*+2+2+-2*+2-2*+2+2+-2*+2-2*+2+2+-2*+2-2*+2+2+-2*+2-2*+2+2+-2*+2-2*+2+2+-2*+2-2*+2+2+-2*+2-2*+2+2+-2*+2-2*+2+2+-2*+2-2*+2+2+-2*+2-2*+2+2+-2*+2-2*+2+2+-2*+2-2*+2+2+-2*+2-2*+2+2+-2*+2-2*+2+2+-2*+2-2*+2+2+-2*+2"
calculate integer "1+1+1+1+1+1+1+1+1+1+1+1+1+1+1+1+1+1+1+1+1+1+1+1+1+1+1+1+1+1+1+1+1+1+1+1+1+1+1+1+1+1+1+1+1+1+1+1+1+1+1+1+1+1+1+1+1+1+1+1+1+1+1+1+1+1+1+1+1+1+1+1+1+1+1+1+1+1+1+1+1+1+1+1+1+1+1+1+1+1+1+1+1+1+1+1+1+1+1+1+1+1+1+1+1+1+1+1+1+1+1+1+1+1+1+1+1+1+1+1+1+1+1+1+1+1+1+1+1+1+1+1+1+1+1+1+1+1+1+1+1+1+1+1+1+1+1+1+1+1+1+1+1+1+1+1+1+1+1+1+1+1+1+1+1+1+1+1+1+1+1+1+1+1+1+1+1+1+1+1+1+1+1+1+1+1+1+1+1+1+1+1+1+1+1+1+1+1+1+1+1+1+1+1+1+1+1+1+1+1+1+1+1+1+1+1+1+1+1+1+1+1+1+1+1+1+1+1+1+1+1+1+1+1+1+1+1+1+1+1+1+1+1+1+1+1+1+1+1+1+1+1+1+1+1+1+1+1+1+1+1+1+1+1+1+1+1+1+1+1+1+1+1+1+1+1+1+1+1+1+1+1+1+1+1+1+1+1+1+1+1+1+1+1+1+1+1+1+1+1+1+1+1+1+1+1+1+1+1+1+1+1+1+1+1+1+1+1+1+1+1+1+1+1+1+1+1+1+1+1+1+1+1+1+1+1+1+1+1+1+1+1+1+1+1+1+1+1+1+1+1+1+1+1+1+1+1+1+1+1+1+1+1+1+1+1+1+1+1+1+1+1+1+1+1+1+1+1+1+1+1+1+1+1+1+1+1+1+1+1+1+1+1+1+1+1+1+1+1+1+1+1+1+1+1+1+1+1+1+1+1+1+1+1+1+1+1+1+1+1+1+1+1+1+1+1+1+1+1+1+1+1+1+1+1+1+1+1+1+1+1+1+1+1+1+1+1+1+1+1+1+1+1+1+1+1+1+1+1+1+1+1+1+1+1+1+1+1"
calculate hex "(((((((((((((((((((((((((((((((((((A)))+(((((((((B)))))))))+(((C)))))))))))))))))))))))))))))))))))"
calculate hex "(((((((((((((((((((((((((((((((((((A)))+(((((((((B)))))))))+(((C)))))))))))))))))))))))))))))))))))+(((((((((((((((((((((((((((((((((((A)))+(((((((((B)))))))))+(((C)))))))))))))))))))))))))))))))))))+(((((((((((((((((((((((((((((((((((A)))+(((((((((B)))))))))+(((C)))))))))))))))))))))))))))))))))))+(((((((((((((((((((((((((((((((((((A)))+(((((((((B)))))))))+(((C)))))))))))))))))))))))))))))))))))+(((((((((((((((((((((((((((((((((((A)))+(((((((((B)))))))))+(((C)))))))))))))))))))))))))))))))))))+(((((((((((((((((((((((((((((((((((A)))+(((((((((B)))))))))+(((C)))))))))))))))))))))))))))))))))))+(((((((((((((((((((((((((((((((((((A)))+(((((((((B)))))))))+(((C)))))))))))))))))))))))))))))))))))+(((((((((((((((((((((((((((((((((((A)))+(((((((((B)))))))))+(((C)))))))))))))))))))))))))))))))))))+(((((((((((((((((((((((((((((((((((A)))+(((((((((B)))))))))+(((C)))))))))))))))))))))))))))))))))))+(((((((((((((((((((((((((((((((((((A)))+(((((((((B)))))))))+(((C)))))))))))))))))))))))))))))))))))+(((((((((((((((((((((((((((((((((((A)))+(((((((((B)))))))))+(((C)))))))))))))))))))))))))))))))))))+(((((((((((((((((((((((((((((((((((A)))+(((((((((B)))))))))+(((C)))))))))))))))))))))))))))))))))))+(((((((((((((((((((((((((((((((((((A)))+(((((((((B)))))))))+(((C)))))))))))))))))))))))))))))))))))+(((((((((((((((((((((((((((((((((((A)))+(((((((((B)))))))))+(((C)))))))))))))))))))))))))))))))))))+(((((((((((((((((((((((((((((((((((A)))+(((((((((B)))))))))+(((C)))))))))))))))))))))))))))))))))))+(((((((((((((((((((((((((((((((((((A)))+(((((((((B)))))))))+(((C)))))))))))))))))))))))))))))))))))+(((((((((((((((((((((((((((((((((((A)))+(((((((((B)))))))))+(((C)))))))))))))))))))))))))))))))))))+(((((((((((((((((((((((((((((((((((A)))+(((((((((B)))))))))+(((C)))))))))))))))))))))))))))))))))))+(((((((((((((((((((((((((((((((((((A)))+(((((((((B)))))))))+(((C)))))))))))))))))))))))))))))))))))+(((((((((((((((((((((((((((((((((((A)))+(((((((((B)))))))))+(((C)))))))))))))))))))))))))))))))))))+(((((((((((((((((((((((((((((((((((A)))+(((((((((B)))))))))+(((C)))))))))))))))))))))))))))))))))))+(((((((((((((((((((((((((((((((((((A)))+(((((((((B)))))))))+(((C)))))))))))))))))))))))))))))))))))+(((((((((((((((((((((((((((((((((((A)))+(((((((((B)))))))))+(((C)))))))))))))))))))))))))))))))))))+(((((((((((((((((((((((((((((((((((A)))+(((((((((B)))))))))+(((C)))))))))))))))))))))))))))))))))))+(((((((((((((((((((((((((((((((((((A)))+(((((((((B)))))))))+(((C)))))))))))))))))))))))))))))))))))+(((((((((((((((((((((((((((((((((((A)))+(((((((((B)))))))))+(((C)))))))))))))))))))))))))))))))))))+(((((((((((((((((((((((((((((((((((A)))+(((((((((B)))))))))+(((C)))))))))))))))))))))))))))))))))))+(((((((((((((((((((((((((((((((((((A)))+(((((((((B)))))))))+(((C)))))))))))))))))))))))))))))))))))+(((((((((((((((((((((((((((((((((((A)))+(((((((((B)))))))))+(((C)))))))))))))))))))))))))))))))))))+(((((((((((((((((((((((((((((((((((A)))+(((((((((B)))))))))+(((C)))))))))))))))))))))))))))))))))))+(((((((((((((((((((((((((((((((((((A)))+(((((((((B)))))))))+(((C)))))))))))))))))))))))))))))))))))+(((((((((((((((((((((((((((((((((((A)))+(((((((((B)))))))))+(((C)))))))))))))))))))))))))))))))))))+(((((((((((((((((((((((((((((((((((A)))+(((((((((B)))))))))+(((C)))))))))))))))))))))))))))))))))))+(((((((((((((((((((((((((((((((((((A)))+(((((((((B)))))))))+(((C)))))))))))))))))))))))))))))))))))+(((((((((((((((((((((((((((((((((((A)))+(((((((((B)))))))))+(((C)))))))))))))))))))))))))))))))))))+(((((((((((((((((((((((((((((((((((A)))+(((((((((B)))))))))+(((C)))))))))))))))))))))))))))))))))))+(((((((((((((((((((((((((((((((((((A)))+(((((((((B)))))))))+(((C)))))))))))))))))))))))))))))))))))+(((((((((((((((((((((((((((((((((((A)))+(((((((((B)))))))))+(((C)))))))))))))))))))))))))))))))))))+(((((((((((((((((((((((((((((((((((A)))+(((((((((B)))))))))+(((C)))))))))))))))))))))))))))))))))))+(((((((((((((((((((((((((((((((((((A)))+(((((((((B)))))))))+(((C)))))))))))))))))))))))))))))))))))+(((((((((((((((((((((((((((((((((((A)))+(((((((((B)))))))))+(((C)))))))))))))))))))))))))))))))))))+(((((((((((((((((((((((((((((((((((A)))+(((((((((B)))))))))+(((C)))))))))))))))))))))))))))))))))))+(((((((((((((((((((((((((((((((((((A)))+(((((((((B)))))))))+(((C)))))))))))))))))))))))))))))))))))+(((((((((((((((((((((((((((((((((((A)))+(((((((((B)))))))))+(((C)))))))))))))))))))))))))))))))))))+(((((((((((((((((((((((((((((((((((A)))+(((((((((B)))))))))+(((C)))))))))))))))))))))))))))))))))))+(((((((((((((((((((((((((((((((((((A)))+(((((((((B)))))))))+(((C)))))))))))))))))))))))))))))))))))+(((((((((((((((((((((((((((((((((((A)))+(((((((((B)))))))))+(((C)))))))))))))))))))))))))))))))))))+(((((((((((((((((((((((((((((((((((A)))+(((((((((B)))))))))+(((C)))))))))))))))))))))))))))))))))))+(((((((((((((((((((((((((((((((((((A)))+(((((((((B)))))))))+(((C)))))))))))))))))))))))))))))))))))+(((((((((((((((((((((((((((((((((((A)))+(((((((((B)))))))))+(((C)))))))))))))))))))))))))))))))))))+(((((((((((((((((((((((((((((((((((A)))+(((((((((B)))))))))+(((C)))))))))))))))))))))))))))))))))))+(((((((((((((((((((((((((((((((((((A)))+(((((((((B)))))))))+(((C)))))))))))))))))))))))))))))))))))+(((((((((((((((((((((((((((((((((((A)))+(((((((((B)))))))))+(((C)))))))))))))))))))))))))))))))))))+(((((((((((((((((((((((((((((((((((A)))+(((((((((B)))))))))+(((C)))))))))))))))))))))))))))))))))))+(((((((((((((((((((((((((((((((((((A)))+(((((((((B)))))))))+(((C)))))))))))))))))))))))))))))))))))+(((((((((((((((((((((((((((((((((((A)))+(((((((((B)))))))))+(((C)))))))))))))))))))))))))))))))))))+(((((((((((((((((((((((((((((((((((A)))+(((((((((B)))))))))+(((C)))))))))))))))))))))))))))))))))))+(((((((((((((((((((((((((((((((((((A)))+(((((((((B)))))))))+(((C)))))))))))))))))))))))))))))))))))+(((((((((((((((((((((((((((((((((((A)))+(((((((((B)))))))))+(((C)))))))))))))))))))))))))))))))))))+(((((((((((((((((((((((((((((((((((A)))+(((((((((B)))))))))+(((C)))))))))))))))))))))))))))))))))))+(((((((((((((((((((((((((((((((((((A)))+(((((((((B)))))))))+(((C)))))))))))))))))))))))))))))))))))+(((((((((((((((((((((((((((((((((((A)))+(((((((((B)))))))))+(((C)))))))))))))))))))))))))))))))))))+(((((((((((((((((((((((((((((((((((A)))+(((((((((B)))))))))+(((C)))))))))))))))))))))))))))))))))))+(((((((((((((((((((((((((((((((((((A)))+(((((((((B)))))))))+(((C)))))))))))))))))))))))))))))))))))+(((((((((((((((((((((((((((((((((((A)))+(((((((((B)))))))))+(((C)))))))))))))))))))))))))))))))))))+(((((((((((((((((((((((((((((((((((A)))+(((((((((B)))))))))+(((C)))))))))))))))))))))))))))))))))))+(((((((((((((((((((((((((((((((((((A)))+(((((((((B)))))))))+(((C)))))))))))))))))))))))))))))))))))+(((((((((((((((((((((((((((((((((((A)))+(((((((((B)))))))))+(((C)))))))))))))))))))))))))))))))))))+(((((((((((((((((((((((((((((((((((A)))+(((((((((B)))))))))+(((C)))))))))))))))))))))))))))))))))))+(((((((((((((((((((((((((((((((((((A)))+(((((((((B)))))))))+(((C)))))))))))))))))))))))))))))))))))"
calculate hex "(((((((((((((((((((((((((((((((((((A+FF*5-(BFF))))+(2*((((((((1BC)))))))))+(((C)-1)-1)--1))))))))))))))))))))))))))))))))"
calculate hex "((F/3+(((((((((((((12++((((((((((((((((((((A+FF*5-(BFF))))+(2*((((((((1BC)))))))))+(((C)-1)-1)--1))))))))))))))))))))))))))))))))"
calculate hex "((((((((((((((F/3+((((((1+-(3--((((((12++((((((((ABC-(5*2F-+21-(((((((((((A+FF*5-(BFF))))+(2*((((((((1BC)))))))))+(((C)-1)-1)--1))))))))))))))))))))))))))))))))))))))))))))"
calculate hex "-((((((((((((((F/3+((((((1+-(3--((((((12++((((((((ABC-(5*2F-+21-(((((((((((A+FF*5-(BFF))))+(2*((((((((1BC)))))))))+(((C)-1)-1)--1))))))))))))))))))))))))))))))))))))))))))))"
calculate hex "AFF*((((((((((((((F/3+((((((1+-(3--((((((12++((((((((ABC-(5*2F-+21-(((((((((((A+FF*5-(BFF))))+(2*((((((((1BC)))))))))+(((C)-1)-1)--1))))))))))))))))))))))))))))))))))))))))))))"
print
calculate integer "15*512-+12*5--(5*3*3*3*(5+8+9+1+1/1/1/1/1/1))"
calculate integer "15*512-+12*5--(5*3*3*3*(5+8+9+1+1/1/1/1/1/1))"
print
