calculate integer "(((((((((((((((((((((((((((((((((((A)))+(((((((((B)))))))))+(((C)))))))))))))))))))))))))))))))))))"
calculate integer "1"
calculate hex "XYZ+XYZ"
calculate hex "1"
calculate integer "((1+1)"
calculate integer "1"
calculate integer "((1+1)))"
calculate integer "1"
calculate integer "1**1"
calculate integer "1"
calculate integer "1---1"
calculate integer "1"
calculate integer "1-*1"
calculate integer "1"
calculate integer "1-/1"
calculate integer "1"
calculate integer "1/--1"
calculate integer "1"
print
